…
- Write your challenges and your approach to solving them Initially I
  made a simple bar chart to get a better understanding of the data.
  Then, I created a boxplot to look at the variation in data within each
  continent.

### **q3** You should have found *at least* three outliers in q2 (but possibly many more!). Identify those outliers (figure out which countries they are).

``` r
## TASK: Identify the outliers from q2
gapminder %>%
  filter(year == year_min & continent == "Europe") %>%
  arrange(desc(gdpPercap))
```

    ## # A tibble: 30 × 6
    ##    country        continent  year lifeExp      pop gdpPercap
    ##    <fct>          <fct>     <int>   <dbl>    <int>     <dbl>
    ##  1 Switzerland    Europe     1952    69.6  4815000    14734.
    ##  2 Norway         Europe     1952    72.7  3327728    10095.
    ##  3 United Kingdom Europe     1952    69.2 50430000     9980.
    ##  4 Denmark        Europe     1952    70.8  4334000     9692.
    ##  5 Netherlands    Europe     1952    72.1 10381988     8942.
    ##  6 Sweden         Europe     1952    71.9  7124673     8528.
    ##  7 Belgium        Europe     1952    68    8730405     8343.
    ##  8 Iceland        Europe     1952    72.5   147962     7268.
    ##  9 Germany        Europe     1952    67.5 69145952     7144.
    ## 10 France         Europe     1952    67.4 42459667     7030.
    ## # … with 20 more rows

``` r
gapminder %>%
  filter(year == year_min & continent == "Asia") %>%
  arrange(desc(gdpPercap))
```

    ## # A tibble: 33 × 6
    ##    country          continent  year lifeExp      pop gdpPercap
    ##    <fct>            <fct>     <int>   <dbl>    <int>     <dbl>
    ##  1 Kuwait           Asia       1952    55.6   160000   108382.
    ##  2 Bahrain          Asia       1952    50.9   120447     9867.
    ##  3 Saudi Arabia     Asia       1952    39.9  4005677     6460.
    ##  4 Lebanon          Asia       1952    55.9  1439529     4835.
    ##  5 Iraq             Asia       1952    45.3  5441766     4130.
    ##  6 Israel           Asia       1952    65.4  1620914     4087.
    ##  7 Japan            Asia       1952    63.0 86459025     3217.
    ##  8 Hong Kong, China Asia       1952    61.0  2125900     3054.
    ##  9 Iran             Asia       1952    44.9 17272000     3035.
    ## 10 Singapore        Asia       1952    60.4  1127000     2315.
    ## # … with 23 more rows

``` r
gapminder %>%
  filter(year == year_min & continent == "Americas") %>%
  arrange(desc(gdpPercap))
```

    ## # A tibble: 25 × 6
    ##    country       continent  year lifeExp       pop gdpPercap
    ##    <fct>         <fct>     <int>   <dbl>     <int>     <dbl>
    ##  1 United States Americas   1952    68.4 157553000    13990.
    ##  2 Canada        Americas   1952    68.8  14785584    11367.
    ##  3 Venezuela     Americas   1952    55.1   5439568     7690.
    ##  4 Argentina     Americas   1952    62.5  17876956     5911.
    ##  5 Uruguay       Americas   1952    66.1   2252965     5717.
    ##  6 Cuba          Americas   1952    59.4   6007797     5587.
    ##  7 Chile         Americas   1952    54.7   6377619     3940.
    ##  8 Peru          Americas   1952    43.9   8025700     3759.
    ##  9 Ecuador       Americas   1952    48.4   3548753     3522.
    ## 10 Mexico        Americas   1952    50.8  30144317     3478.
    ## # … with 15 more rows
…
