…
    ## # A tibble: 2 × 2
    ##   subject_race raw_Race
    ##   <fct>        <chr>   
    ## 1 other        A       
    ## 2 other        A

``` r
df_data %>%
  select(subject_race, raw_Race) %>%
  filter(raw_Race == "None - for no operator present citations only")
```

    ## # A tibble: 17,017 × 2
    ##    subject_race raw_Race                                     
    ##    <fct>        <chr>                                        
    ##  1 unknown      None - for no operator present citations only
    ##  2 unknown      None - for no operator present citations only
    ##  3 unknown      None - for no operator present citations only
    ##  4 unknown      None - for no operator present citations only
    ##  5 unknown      None - for no operator present citations only
    ##  6 unknown      None - for no operator present citations only
    ##  7 unknown      None - for no operator present citations only
    ##  8 unknown      None - for no operator present citations only
    ##  9 unknown      None - for no operator present citations only
    ## 10 unknown      None - for no operator present citations only
    ## # … with 17,007 more rows
…
